module gitlab.com/youronlyone/site.p

go 1.22

require (
  codeberg.org/yelosan/hugo-feeds main
  codeberg.org/yelosan/hugo-syndication main
  codeberg.org/yelosan/hugo-shortcodes main
  codeberg.org/yelosan/hugo-semantic-web main
  gitlab.com/youronlyone/images main
  codeberg.org/youronlyone/content main
  codeberg.org/yelosan/hugo-globals main
  codeberg.org/youronlyone/defaults main
  github.com/techmagus/hugo-theme-yinyang main
)
